Learning - Bulk RNAseq
…
# A tibble: 6 × 6
  gene            baseMean log2FoldChange lfcSE        pvalue        padj
  <chr>              <dbl>          <dbl> <dbl>         <dbl>       <dbl>
1 ENSG00000000003    4040.          1.13  0.229 0.0000000192  0.000000590
2 ENSG00000000457    2264.          0.735 0.205 0.0000387     0.000448   
3 ENSG00000001036    1678.          0.620 0.236 0.00141       0.00922    
4 ENSG00000001497    2324.         -0.734 0.332 0.00262       0.0153     
5 ENSG00000001561    3888.          1.71  0.330 0.00000000463 0.000000169
6 ENSG00000001626    4004.          1.68  0.942 0.00119       0.00803    

¿Cuantos genes hay diferencialmente expresados en las células luminales de próstata con respecto a las basales?

sig

# A tibble: 3,188 × 6
   gene            baseMean log2FoldChange lfcSE        pvalue        padj
   <chr>              <dbl>          <dbl> <dbl>         <dbl>       <dbl>
 1 ENSG00000000003   4040.           1.13  0.229 0.0000000192  0.000000590
 2 ENSG00000000457   2264.           0.735 0.205 0.0000387     0.000448   
 3 ENSG00000001036   1678.           0.620 0.236 0.00141       0.00922    
 4 ENSG00000001497   2324.          -0.734 0.332 0.00262       0.0153     
 5 ENSG00000001561   3888.           1.71  0.330 0.00000000463 0.000000169
 6 ENSG00000001626   4004.           1.68  0.942 0.00119       0.00803    
 7 ENSG00000002726     57.7          2.11  0.717 0.0000513     0.000567   
 8 ENSG00000003147   3870.           1.28  0.352 0.00000482    0.0000755  
 9 ENSG00000003249    419.           1.05  0.466 0.000853      0.00613    
10 ENSG00000003400   2427.           1.89  0.353 0.00000000260 0.000000102
# ℹ 3,178 more rows
…
